{
  "/login": {
    "target": "http://localhost:8501",
    "secure": false,
    "changeOrigin": true,
    "logLevel": "debug"
  },
  "/logout": {
    "target": "http://localhost:8501",
    "secure": false,
    "changeOrigin": true,
    "logLevel": "debug"
  },
  "/service": {
    "target": "http://localhost:8501",
    "secure": false,
    "changeOrigin": true,
    "logLevel": "debug"
  }
}
